[
  "freedombox",
  "avahi-daemon",
  "bepasty",
  "bind9",
  "borgbackup",
  "calibre",
  "certbot",
  "cockpit",
  "cockpit-pcp",
  "coturn",
  "deluge",
  "ejabberd",
  "gitweb",
  "i2p",
  "ikiwiki",
  "infinoted",
  "kiwix-tools",
  "libjs-jsxc",
  "matrix-synapse",
  "mediawiki",
  "minetest",
  "minidlna",
  "mumble",
  "openvpn",
  "pagekite",
  "privoxy",
  "quassel",
  "radicale",
  "roundcube",
  "rss-bridge",
  "samba",
  "searx",
  "shaarli",
  "shadowsocks",
  "syncthing",
  "tor",
  "transmission-daemon",
  "tt-rss",
  "wireguard",
  "wordpress",
  "zoph"
]
